{
  "project_info": {
    "project_number": "1000711861868",
    "firebase_url": "https://safely-prod-25569.firebaseio.com",
    "project_id": "safely-prod-25569",
    "storage_bucket": "safely-prod-25569.appspot.com"
  },
  "client": [
    {
      "client_info": {
        "mobilesdk_app_id": "1:1000711861868:android:dd1a6c001f01cf61",
        "android_client_info": {
          "package_name": "org.overdryv.safely"
        }
      },
      "oauth_client": [
        {
          "client_id": "1000711861868-3j9i3pnpp1o01i52phd3qjq9plnk00jf.apps.googleusercontent.com",
          "client_type": 3
        }
      ],
      "api_key": [
        {
          "current_key": "AIzaSyC5PzeXMCztZhxEtCpVy73B_OH33X6niVw"
        }
      ],
      "services": {
        "analytics_service": {
          "status": 1
        },
        "appinvite_service": {
          "status": 1,
          "other_platform_oauth_client": []
        },
        "ads_service": {
          "status": 2
        }
      }
    }
  ],
  "configuration_version": "1"
}